…
## gapminder
#### Plot3

```r
gm <- gapminder %>%
  arrange(year) %>%
  filter(country == "United States" | country == "Mexico"| country == "China" | country == "India" | country == "Brazil") %>%
  group_by(year,country) %>%
  mutate(pop1 = mean(pop))
gm
```

```
## # A tibble: 60 × 7
## # Groups:   year, country [60]
##    country       continent  year lifeExp       pop gdpPercap      pop1
##    <fct>         <fct>     <int>   <dbl>     <int>     <dbl>     <dbl>
##  1 Brazil        Americas   1952    50.9  56602560     2109.  56602560
##  2 China         Asia       1952    44   556263527      400. 556263527
##  3 India         Asia       1952    37.4 372000000      547. 372000000
##  4 Mexico        Americas   1952    50.8  30144317     3478.  30144317
##  5 United States Americas   1952    68.4 157553000    13990. 157553000
##  6 Brazil        Americas   1957    53.3  65551171     2487.  65551171
##  7 China         Asia       1957    50.5 637408000      576. 637408000
##  8 India         Asia       1957    40.2 409000000      590. 409000000
##  9 Mexico        Americas   1957    55.2  35015548     4132.  35015548
## 10 United States Americas   1957    69.5 171984000    14847. 171984000
## # … with 50 more rows
```
…
