…
data <- xl %>%
  mutate(contest_period = str_replace_all(contest_period, "19", "_19"),
         contest_period = str_replace_all(contest_period, 'Dec._1993', 'December_1993'),
         contest_period = str_replace_all(contest_period, 'Febuary', 'February')) %>%
  separate(contest_period, into = c("Month", 'year_end'),sep="-") %>%
  separate(year_end, into = c("Month_end", 'Year_end'),sep="_") %>%
  select(-Month) %>%
  mutate(Month_end = factor(Month_end, levels = months))
data
```

```
## # A tibble: 300 × 4
##    Month_end Year_end variable value
##    <fct>     <chr>    <chr>    <dbl>
##  1 June      1990     PROS      12.7
##  2 July      1990     PROS      26.4
##  3 August    1990     PROS       2.5
##  4 September 1990     PROS     -20  
##  5 October   1990     PROS     -37.8
##  6 November  1990     PROS     -33.3
##  7 December  1990     PROS     -10.2
##  8 January   1991     PROS     -20.3
##  9 February  1991     PROS      38.9
## 10 March     1991     PROS      20.2
## # … with 290 more rows
```
…
