…
```r
ScrabbleData
```

```
## # A tibble: 1,542,642 × 19
##    gameid tourne…¹ tie   winne…² winne…³ winne…⁴ winne…⁵ winne…⁶ winne…⁷ loserid
##     <dbl>    <dbl> <lgl>   <dbl> <chr>     <dbl>   <dbl>   <dbl>   <dbl>   <dbl>
##  1      1        1 FALSE     268 Harrie…       0    1568    1684       1     429
##  2      2        1 FALSE     268 Harrie…       0    1568    1684       1     435
##  3      3        1 FALSE     268 Harrie…       0    1568    1684       1     441
##  4      4        1 FALSE     268 Harrie…       0    1568    1684       1     456
##  5      5        1 FALSE     268 Harrie…       0    1568    1684       1    1334
##  6      6        1 FALSE     268 Harrie…       0    1568    1684       1     454
##  7      7        1 FALSE     268 Harrie…       0    1568    1684       1    5766
##  8      8        1 FALSE     268 Harrie…       0    1568    1684       1     442
##  9      9        1 FALSE     429 Patric…       0    1915    1872       3     456
## 10     10        1 FALSE     429 Patric…       0    1915    1872       3    1334
## # … with 1,542,632 more rows, 9 more variables: losername <chr>,
## #   loserscore <dbl>, loseroldrating <dbl>, losernewrating <dbl>,
## #   loserpos <dbl>, round <dbl>, division <dbl>, date <date>, lexicon <lgl>,
## #   and abbreviated variable names ¹​tourneyid, ²​winnerid, ³​winnername,
## #   ⁴​winnerscore, ⁵​winneroldrating, ⁶​winnernewrating, ⁷​winnerpos
```
…
