…
## Import Data

```r
GC <- read_dta("https://github.com/WJC-Data-Science/DTS350/blob/master/germanconscr.dta?raw=true")
GC
```

```
## # A tibble: 1,382 × 5
##    gebger      bdec height   age co   
##    <chr>      <dbl>  <dbl> <dbl> <chr>
##  1 brueckenau  1850   170.    21 de-se
##  2 brueckenau  1850   156.    21 de-se
##  3 brueckenau  1850   172.    21 de-se
##  4 brueckenau  1850   168.    21 de-se
##  5 brueckenau  1850   167.    21 de-se
##  6 brueckenau  1850   160.    21 de-se
##  7 brueckenau  1850   161.    21 de-se
##  8 brueckenau  1850   162.    21 de-se
##  9 brueckenau  1850   162.    21 de-se
## 10 brueckenau  1850   170.    21 de-se
## # … with 1,372 more rows
```

```r
GP <- read_dta("https://github.com/WJC-Data-Science/DTS350/blob/master/germanprison.dta?raw=true")
GP
```

```
## # A tibble: 477 × 4
##      age  bdec co    height
##    <dbl> <dbl> <chr>  <dbl>
##  1    22  1850 de       156
##  2    26  1850 de       168
##  3    26  1850 de       161
##  4    25  1850 de       159
##  5    26  1850 de       175
##  6    24  1850 de       173
##  7    24  1850 de       173
##  8    24  1850 de       172
##  9    24  1850 de       161
## 10    21  1850 de       175
## # … with 467 more rows
```
…
```r
heightscsv <- read_csv("https://raw.githubusercontent.com/hadley/r4ds/master/data/heights.csv",skip = 2,col_names = FALSE)
d1 <- heightscsv %>%
  mutate(earn = X1, height = X2, sex = X3, ed = X4, age = X5, race = X6) %>%
  select(earn,height,sex,ed,age,race)
d1
```

```
## # A tibble: 1,191 × 6
##     earn height sex       ed   age race    
##    <dbl>  <dbl> <chr>  <dbl> <dbl> <chr>   
##  1 60000   65.5 female    16    58 white   
##  2 30000   63.6 female    16    29 white   
##  3 50000   63.1 female    16    91 other   
##  4 51000   63.4 female    17    39 white   
##  5  9000   64.4 female    15    26 white   
##  6 29000   61.7 female    12    49 white   
##  7 32000   72.7 male      17    46 white   
##  8  2000   72.0 male      15    21 hispanic
##  9 27000   72.2 male      12    26 white   
## 10  6530   69.5 male      16    65 white   
## # … with 1,181 more rows
```
…
## Tidy World Estimate Data

```r
d <- exceldata %>%
  pivot_longer(cols =  ('1800':'2011'), names_to = "Year",values_to = "Height") %>%
  filter(!is.na(Height))
names(d)[2] <- 'Country'
d
```

```
## # A tibble: 1,340 × 4
##     Code Country Year  Height
##    <dbl> <chr>   <chr>  <dbl>
##  1    40 Austria 1820    164.
##  2    40 Austria 1830    163.
##  3    40 Austria 1840    165.
##  4    40 Austria 1850    166.
##  5    40 Austria 1860    166.
##  6    40 Austria 1870    167.
##  7    40 Austria 1880    168.
##  8    40 Austria 1890    168.
##  9    40 Austria 1900    169.
## 10    40 Austria 1910    169.
## # … with 1,330 more rows
```

```r
dd <- d %>%
  separate(Year, into = c("Century","Decade"),sep = -2) %>%
  separate(Decade, into = c('Decade','Year'),sep=-1) %>%
  mutate(height.cm = Height, height.in = Height/2.54) %>%
  select(-Height) %>%
  arrange(Century,Decade,Year)
dd
```

```
## # A tibble: 1,340 × 7
##     Code Country                            Century Decade Year  heigh…¹ heigh…²
##    <dbl> <chr>                              <chr>   <chr>  <chr>   <dbl>   <dbl>
##  1    56 Belgium                            18      1      0        163.    64.2
##  2   280 Federal Republic of Germany (unti… 18      1      0        168.    66.1
##  3   250 France                             18      1      0        164.    64.5
##  4   276 Germany                            18      1      0        168.    66.1
##  5   528 Netherlands                        18      1      0        166     65.4
##  6   246 Finland                            18      1      0        172.    67.7
##  7   372 Ireland                            18      1      0        168     66.1
##  8   578 Norway                             18      1      0        169.    66.4
##  9   826 United Kingdom of Great Britain a… 18      1      0        170.    66.8
## 10   191 Croatia                            18      1      0        163.    64.3
## # … with 1,330 more rows, and abbreviated variable names ¹​height.cm, ²​height.in
```
```r
write.csv(dd, "WorldEstimates", row.names = TRUE)
```

## Join Individual Datasets

```r
GC1 <- GC %>%
  mutate(height.cm = height, height.in = height/2.54,bYear = bdec, dataset = 'GC') %>%
  select(height.cm,height.in, bYear, dataset)
GC1
```

```
## # A tibble: 1,382 × 4
##    height.cm height.in bYear dataset
##        <dbl>     <dbl> <dbl> <chr>  
##  1      170.      66.8  1850 GC     
##  2      156.      61.6  1850 GC     
##  3      172.      67.9  1850 GC     
##  4      168.      66.2  1850 GC     
##  5      167.      65.6  1850 GC     
##  6      160.      63.1  1850 GC     
##  7      161.      63.2  1850 GC     
##  8      162.      63.9  1850 GC     
##  9      162.      63.7  1850 GC     
## 10      170.      67.0  1850 GC     
## # … with 1,372 more rows
```

```r
GP1 <- GP %>%
  mutate(height.cm = height,height.in=height/2.54,bYear = bdec, dataset = 'GP') %>%
  select(height.cm,height.in, bYear, dataset)
GP1
```

```
## # A tibble: 477 × 4
##    height.cm height.in bYear dataset
##        <dbl>     <dbl> <dbl> <chr>  
##  1       156      61.4  1850 GP     
##  2       168      66.1  1850 GP     
##  3       161      63.4  1850 GP     
##  4       159      62.6  1850 GP     
##  5       175      68.9  1850 GP     
##  6       173      68.1  1850 GP     
##  7       173      68.1  1850 GP     
##  8       172      67.7  1850 GP     
##  9       161      63.4  1850 GP     
## 10       175      68.9  1850 GP     
## # … with 467 more rows
```
…
```r
D11 <- d1 %>%
  mutate(height.in = height, height.cm = height*2.54, bYear = 1950, dataset = 'D11') %>%
  select(height.cm,height.in, bYear, dataset)
D11
```

```
## # A tibble: 1,191 × 4
##    height.cm height.in bYear dataset
##        <dbl>     <dbl> <dbl> <chr>  
##  1      166.      65.5  1950 D11    
##  2      162.      63.6  1950 D11    
##  3      160.      63.1  1950 D11    
##  4      161.      63.4  1950 D11    
##  5      164.      64.4  1950 D11    
##  6      157.      61.7  1950 D11    
##  7      185.      72.7  1950 D11    
##  8      183.      72.0  1950 D11    
##  9      183.      72.2  1950 D11    
## 10      177.      69.5  1950 D11    
## # … with 1,181 more rows
```

```r
joined <- bind_rows(GC1,GP1,EVW1,WD1,D11)
joined
```

```
## # A tibble: 28,574 × 4
##    height.cm height.in bYear dataset
##        <dbl>     <dbl> <dbl> <chr>  
##  1      170.      66.8  1850 GC     
##  2      156.      61.6  1850 GC     
##  3      172.      67.9  1850 GC     
##  4      168.      66.2  1850 GC     
##  5      167.      65.6  1850 GC     
##  6      160.      63.1  1850 GC     
##  7      161.      63.2  1850 GC     
##  8      162.      63.9  1850 GC     
##  9      162.      63.7  1850 GC     
## 10      170.      67.0  1850 GC     
## # … with 28,564 more rows
```
…
## Plot2

```r
joined1 <- joined %>%
  group_by(bYear,dataset) %>%
  summarise(height = mean(height.in))
joined1
```

```
## # A tibble: 103 × 3
## # Groups:   bYear [99]
##    bYear dataset height
##    <dbl> <chr>    <dbl>
##  1  1760 EVW       66.1
##  2  1761 EVW       67.1
##  3  1763 EVW       64.6
##  4  1764 EVW       65.6
##  5  1765 EVW       65.6
##  6  1766 EVW       67.8
##  7  1768 EVW       68.1
##  8  1769 EVW       66.8
##  9  1771 EVW       65.3
## 10  1772 EVW       67.3
## # … with 93 more rows
```
…
