…
```
## Warning: `as_data_frame()` was deprecated in tibble 2.0.0.
## Please use `as_tibble()` instead.
## The signature and semantics have changed, see `?as_tibble`.
## This warning is displayed once every 8 hours.
## Call `lifecycle::last_lifecycle_warnings()` to see where this warning was generated.
```

```r
iris_data
```

```
## # A tibble: 150 × 5
##    Sepal.Length Sepal.Width Petal.Length Petal.Width Species
##           <dbl>       <dbl>        <dbl>       <dbl> <fct>  
##  1          5.1         3.5          1.4         0.2 setosa 
##  2          4.9         3            1.4         0.2 setosa 
##  3          4.7         3.2          1.3         0.2 setosa 
##  4          4.6         3.1          1.5         0.2 setosa 
##  5          5           3.6          1.4         0.2 setosa 
##  6          5.4         3.9          1.7         0.4 setosa 
##  7          4.6         3.4          1.4         0.3 setosa 
##  8          5           3.4          1.5         0.2 setosa 
##  9          4.4         2.9          1.4         0.2 setosa 
## 10          4.9         3.1          1.5         0.1 setosa 
## # … with 140 more rows
```


Arrange the iris data by Sepal.Length and display the first ten rows.

```r
arrange(iris_data, Sepal.Length)
```

```
## # A tibble: 150 × 5
##    Sepal.Length Sepal.Width Petal.Length Petal.Width Species
##           <dbl>       <dbl>        <dbl>       <dbl> <fct>  
##  1          4.3         3            1.1         0.1 setosa 
##  2          4.4         2.9          1.4         0.2 setosa 
##  3          4.4         3            1.3         0.2 setosa 
##  4          4.4         3.2          1.3         0.2 setosa 
##  5          4.5         2.3          1.3         0.3 setosa 
##  6          4.6         3.1          1.5         0.2 setosa 
##  7          4.6         3.4          1.4         0.3 setosa 
##  8          4.6         3.6          1           0.2 setosa 
##  9          4.6         3.2          1.4         0.2 setosa 
## 10          4.7         3.2          1.3         0.2 setosa 
## # … with 140 more rows
```
…
Create a data frame called iris_min with only the observations with at least 3 for Sepal.Width and not 2.5 for Petal.Width.

```r
iris_min <- filter(iris_data, Sepal.Width >= 3, Petal.Width != 2.5)
iris_min
```

```
## # A tibble: 90 × 5
##    Sepal.Length Sepal.Width Petal.Length Petal.Width Species
##           <dbl>       <dbl>        <dbl>       <dbl> <fct>  
##  1          5.1         3.5          1.4         0.2 setosa 
##  2          4.9         3            1.4         0.2 setosa 
##  3          4.7         3.2          1.3         0.2 setosa 
##  4          4.6         3.1          1.5         0.2 setosa 
##  5          5           3.6          1.4         0.2 setosa 
##  6          5.4         3.9          1.7         0.4 setosa 
##  7          4.6         3.4          1.4         0.3 setosa 
##  8          5           3.4          1.5         0.2 setosa 
##  9          4.9         3.1          1.5         0.1 setosa 
## 10          5.4         3.7          1.5         0.2 setosa 
## # … with 80 more rows
```
Create a data frame called iris_size with a column Sepal.Size

```r
iris_size <- 
  mutate(iris_data, Sepal.Size= case_when(
    Sepal.Length < 5 ~ "small",
    Sepal.Length >= 5 & Sepal.Length <6.5 ~ "medium",
    Sepal.Length >= 6.5 ~ "large"
  )
  )
iris_size
```

```
## # A tibble: 150 × 6
##    Sepal.Length Sepal.Width Petal.Length Petal.Width Species Sepal.Size
##           <dbl>       <dbl>        <dbl>       <dbl> <fct>   <chr>     
##  1          5.1         3.5          1.4         0.2 setosa  medium    
##  2          4.9         3            1.4         0.2 setosa  small     
##  3          4.7         3.2          1.3         0.2 setosa  small     
##  4          4.6         3.1          1.5         0.2 setosa  small     
##  5          5           3.6          1.4         0.2 setosa  medium    
##  6          5.4         3.9          1.7         0.4 setosa  medium    
##  7          4.6         3.4          1.4         0.3 setosa  small     
##  8          5           3.4          1.5         0.2 setosa  medium    
##  9          4.4         2.9          1.4         0.2 setosa  small     
## 10          4.9         3.1          1.5         0.1 setosa  small     
## # … with 140 more rows
```
…
