…
```r
Old_Test <- bible %>%
  filter(volume_title == "Old Testament")
Old_Test
```

```
## # A tibble: 23,145 × 17
##    volume_id book_id chapter_id verse_id volum…¹ book_…² volum…³ book_…⁴ volum…⁵
##        <dbl>   <dbl>      <dbl>    <dbl> <chr>   <chr>   <chr>   <chr>   <lgl>  
##  1         1       1          1        1 Old Te… Genesis The Ol… The Fi… NA     
##  2         1       1          1        2 Old Te… Genesis The Ol… The Fi… NA     
##  3         1       1          1        3 Old Te… Genesis The Ol… The Fi… NA     
##  4         1       1          1        4 Old Te… Genesis The Ol… The Fi… NA     
##  5         1       1          1        5 Old Te… Genesis The Ol… The Fi… NA     
##  6         1       1          1        6 Old Te… Genesis The Ol… The Fi… NA     
##  7         1       1          1        7 Old Te… Genesis The Ol… The Fi… NA     
##  8         1       1          1        8 Old Te… Genesis The Ol… The Fi… NA     
##  9         1       1          1        9 Old Te… Genesis The Ol… The Fi… NA     
## 10         1       1          1       10 Old Te… Genesis The Ol… The Fi… NA     
## # … with 23,135 more rows, 8 more variables: book_subtitle <lgl>,
## #   volume_short_title <chr>, book_short_title <chr>, chapter_number <dbl>,
## #   verse_number <dbl>, scripture_text <chr>, verse_title <chr>,
## #   verse_short_title <chr>, and abbreviated variable names ¹​volume_title,
## #   ²​book_title, ³​volume_long_title, ⁴​book_long_title, ⁵​volume_subtitle
```

```r
New_Test <- bible %>%
  filter(volume_title == "New Testament")
New_Test
```

```
## # A tibble: 7,957 × 17
##    volume_id book_id chapter_id verse_id volum…¹ book_…² volum…³ book_…⁴ volum…⁵
##        <dbl>   <dbl>      <dbl>    <dbl> <chr>   <chr>   <chr>   <chr>   <lgl>  
##  1         2      40        930    23146 New Te… Matthew The Ne… The Go… NA     
##  2         2      40        930    23147 New Te… Matthew The Ne… The Go… NA     
##  3         2      40        930    23148 New Te… Matthew The Ne… The Go… NA     
##  4         2      40        930    23149 New Te… Matthew The Ne… The Go… NA     
##  5         2      40        930    23150 New Te… Matthew The Ne… The Go… NA     
##  6         2      40        930    23151 New Te… Matthew The Ne… The Go… NA     
##  7         2      40        930    23152 New Te… Matthew The Ne… The Go… NA     
##  8         2      40        930    23153 New Te… Matthew The Ne… The Go… NA     
##  9         2      40        930    23154 New Te… Matthew The Ne… The Go… NA     
## 10         2      40        930    23155 New Te… Matthew The Ne… The Go… NA     
## # … with 7,947 more rows, 8 more variables: book_subtitle <lgl>,
## #   volume_short_title <chr>, book_short_title <chr>, chapter_number <dbl>,
## #   verse_number <dbl>, scripture_text <chr>, verse_title <chr>,
## #   verse_short_title <chr>, and abbreviated variable names ¹​volume_title,
## #   ²​book_title, ³​volume_long_title, ⁴​book_long_title, ⁵​volume_subtitle
```
…
## Word count (by verse) for each book in New Testament
### Prepare Data for Visualization 

```r
bible3 <- bible %>%
  filter(volume_title == "New Testament") %>%
  select(book_title,verse_id,scripture_text) %>%
  mutate(word_count = str_count(scripture_text,'\\w+')) %>%
  group_by(book_title) %>%
  mutate(avg_word_count = mean(word_count)) 
bible3
```

```
## # A tibble: 7,957 × 5
## # Groups:   book_title [27]
##    book_title verse_id scripture_text                            word_…¹ avg_w…²
##    <chr>         <dbl> <chr>                                       <int>   <dbl>
##  1 Matthew       23146 THE book of the generation of Jesus Chri…      16    22.2
##  2 Matthew       23147 Abraham begat Isaac; and Isaac begat Jac…      14    22.2
##  3 Matthew       23148 And Judas begat Phares and Zara of Thama…      16    22.2
##  4 Matthew       23149 And Aram begat Aminadab; and Aminadab be…      12    22.2
##  5 Matthew       23150 And Salmon begat Booz of Rachab; and Boo…      16    22.2
##  6 Matthew       23151 And Jesse begat David the king; and Davi…      21    22.2
##  7 Matthew       23152 And Solomon begat Roboam; and Roboam beg…      12    22.2
##  8 Matthew       23153 And Asa begat Josaphat; and Josaphat beg…      12    22.2
##  9 Matthew       23154 And Ozias begat Joatham; and Joatham beg…      12    22.2
## 10 Matthew       23155 And Ezekias begat Manasses; and Manasses…      12    22.2
## # … with 7,947 more rows, and abbreviated variable names ¹​word_count,
## #   ²​avg_word_count
```
…
