…
```
## Simple feature collection with 145 features and 12 fields
## Geometry type: POINT
## Dimension:     XY
## Bounding box:  xmin: -123.1162 ymin: 25.77516 xmax: -68.7924 ymax: 47.91279
## Geodetic CRS:  WGS 84
## # A tibble: 145 × 13
## # Groups:   state_name [49]
##    city   state…¹ state…² county count…³ stplf…⁴ name_…⁵ city_…⁶ popul…⁷ place…⁸
##    <chr>  <chr>   <chr>   <chr>  <chr>   <chr>   <chr>   <chr>   <chr>   <chr>  
##  1 Birmi… Alabama AL      JEFFE… Jeffer… 0107000 Birmin… US Cen… US Cen… Incorp…
##  2 Montg… Alabama AL      MONTG… Montgo… 0151000 Montgo… US Cen… US Cen… Incorp…
##  3 Mobile Alabama AL      MOBILE Mobile  0150000 Mobile… US Cen… US Cen… Incorp…
##  4 Phoen… Arizona AZ      MARIC… Marico… 0455000 Phoeni… US Cen… US Cen… Incorp…
##  5 Tucson Arizona AZ      PIMA   Pima    0477000 Tucson… US Cen… US Cen… Incorp…
##  6 Mesa   Arizona AZ      MARIC… Marico… 0446000 Mesa c… US Cen… US Cen… Incorp…
##  7 Littl… Arkans… AR      PULAS… Pulaski 0541000 Little… US Cen… US Cen… Incorp…
##  8 Fort … Arkans… AR      SEBAS… Sebast… 0524550 Fort S… US Cen… US Cen… Incorp…
##  9 Fayet… Arkans… AR      WASHI… Washin… 0523290 Fayett… US Cen… US Cen… Incorp…
## 10 Los A… Califo… CA      LOS A… Los An… 0644000 Los An… US Cen… US Cen… Incorp…
## # … with 135 more rows, 3 more variables: year <int>, population <int>,
## #   geometry <POINT [°]>, and abbreviated variable names ¹​state_name,
## #   ²​state_abbr, ³​county_name, ⁴​stplfips_2010, ⁵​name_2010, ⁶​city_source,
## #   ⁷​population_source, ⁸​place_type
```
…
