…
#### Download Data

```r
data <- read_csv("https://raw.githubusercontent.com/fivethirtyeight/data/master/fandango/fandango_score_comparison.csv")
data
```

```
## # A tibble: 146 × 22
##    FILM    Rotte…¹ Rotte…² Metac…³ Metac…⁴  IMDB Fanda…⁵ Fanda…⁶ RT_norm RT_us…⁷
##    <chr>     <dbl>   <dbl>   <dbl>   <dbl> <dbl>   <dbl>   <dbl>   <dbl>   <dbl>
##  1 Avenge…      74      86      66     7.1   7.8     5       4.5    3.7     4.3 
##  2 Cinder…      85      80      67     7.5   7.1     5       4.5    4.25    4   
##  3 Ant-Ma…      80      90      64     8.1   7.8     5       4.5    4       4.5 
##  4 Do You…      18      84      22     4.7   5.4     5       4.5    0.9     4.2 
##  5 Hot Tu…      14      28      29     3.4   5.1     3.5     3      0.7     1.4 
##  6 The Wa…      63      62      50     6.8   7.2     4.5     4      3.15    3.1 
##  7 Irrati…      42      53      53     7.6   6.9     4       3.5    2.1     2.65
##  8 Top Fi…      86      64      81     6.8   6.5     4       3.5    4.3     3.2 
##  9 Shaun …      99      82      81     8.8   7.4     4.5     4      4.95    4.1 
## 10 Love &…      89      87      80     8.5   7.8     4.5     4      4.45    4.35
## # … with 136 more rows, 12 more variables: Metacritic_norm <dbl>,
## #   Metacritic_user_nom <dbl>, IMDB_norm <dbl>, RT_norm_round <dbl>,
## #   RT_user_norm_round <dbl>, Metacritic_norm_round <dbl>,
## #   Metacritic_user_norm_round <dbl>, IMDB_norm_round <dbl>,
## #   Metacritic_user_vote_count <dbl>, IMDB_user_vote_count <dbl>,
## #   Fandango_votes <dbl>, Fandango_Difference <dbl>, and abbreviated variable
## #   names ¹​RottenTomatoes, ²​RottenTomatoes_User, ³​Metacritic, …
```
…
