…
#### Download Data

```r
devtools::install_github("drsimonj/ourworldindata")
fh <- ourworldindata::financing_healthcare
fh
```

```
## # A tibble: 36,873 × 17
##     year country conti…¹ healt…² healt…³ healt…⁴ nhs_exp healt…⁵ healt…⁶ healt…⁷
##    <int> <chr>   <chr>     <dbl>   <dbl>   <int>   <dbl>   <dbl>   <dbl>   <dbl>
##  1  2015 Abkhaz… <NA>         NA      NA      NA      NA      NA      NA      NA
##  2  1800 Afghan… Asia         NA      NA      NA      NA      NA      NA      NA
##  3  1801 Afghan… Asia         NA      NA      NA      NA      NA      NA      NA
##  4  1802 Afghan… Asia         NA      NA      NA      NA      NA      NA      NA
##  5  1803 Afghan… Asia         NA      NA      NA      NA      NA      NA      NA
##  6  1804 Afghan… Asia         NA      NA      NA      NA      NA      NA      NA
##  7  1805 Afghan… Asia         NA      NA      NA      NA      NA      NA      NA
##  8  1806 Afghan… Asia         NA      NA      NA      NA      NA      NA      NA
##  9  1807 Afghan… Asia         NA      NA      NA      NA      NA      NA      NA
## 10  1808 Afghan… Asia         NA      NA      NA      NA      NA      NA      NA
## # … with 36,863 more rows, 7 more variables: health_insurance_any <dbl>,
## #   health_exp_public_percent <dbl>, health_exp_oop_percent <dbl>,
## #   no_health_insurance <dbl>, gdp <dbl>, life_expectancy <dbl>,
## #   child_mort <dbl>, and abbreviated variable names ¹​continent,
## #   ²​health_exp_total, ³​health_exp_public, ⁴​health_insurance,
## #   ⁵​health_exp_private, ⁶​health_insurance_govt, ⁷​health_insurance_private
```
…
```
## # A tibble: 114 × 3
## # Groups:   decade [26]
##    decade continent child_mort
##     <dbl> <chr>          <dbl>
##  1   1760 Europe          338.
##  2   1770 Europe          340.
##  3   1780 Europe          317.
##  4   1790 Europe          297.
##  5   1800 Africa          439.
##  6   1800 Americas        418.
##  7   1800 Asia            442.
##  8   1800 Europe          373.
##  9   1800 Oceania         443.
## 10   1810 Africa          439.
## # … with 104 more rows
```
…
```
## # A tibble: 26 × 2
##    decade child_mort
##     <dbl>      <dbl>
##  1   1760       338.
##  2   1770       340.
##  3   1780       317.
##  4   1790       297.
##  5   1800       422.
##  6   1810       420.
##  7   1820       419.
##  8   1830       421.
##  9   1840       417.
## 10   1850       417.
## # … with 16 more rows
```
…
