…
#### FIPS

```r
FIPS <- permits %>%
  mutate(state=as.character(state),stateFIPS=str_pad(state,2,pad="0")) %>%
  mutate(county=as.character(county),countyFIPS=str_pad(county,3,pad="0")) %>%
  mutate(geoid=paste0(stateFIPS,countyFIPS))
FIPS
```

```
## # A tibble: 327,422 × 11
##     ...1 state StateA…¹ county count…² varia…³  year value state…⁴ count…⁵ geoid
##    <dbl> <chr> <chr>    <chr>  <chr>   <chr>   <dbl> <dbl> <chr>   <chr>   <chr>
##  1     1 1     AL       1      Autaug… All Pe…  2010   191 01      001     01001
##  2     2 1     AL       1      Autaug… All Pe…  2009   110 01      001     01001
##  3     3 1     AL       1      Autaug… All Pe…  2008   173 01      001     01001
##  4     4 1     AL       1      Autaug… All Pe…  2007   260 01      001     01001
##  5     5 1     AL       1      Autaug… All Pe…  2006   347 01      001     01001
##  6     6 1     AL       1      Autaug… All Pe…  2005   313 01      001     01001
##  7     7 1     AL       1      Autaug… All Pe…  2004   367 01      001     01001
##  8     8 1     AL       1      Autaug… All Pe…  2003   283 01      001     01001
##  9     9 1     AL       1      Autaug… All Pe…  2002   276 01      001     01001
## 10    10 1     AL       1      Autaug… All Pe…  2001   400 01      001     01001
## # … with 327,412 more rows, and abbreviated variable names ¹​StateAbbr,
## #   ²​countyname, ³​variable, ⁴​stateFIPS, ⁵​countyFIPS
```

#### Merge Data

```r
merge1 <- merge(FIPS,county1,by="geoid") %>%
  group_by(state_name,year) %>%
  summarise(across(value,sum)) %>%
  ungroup() %>%
  group_by(year) %>%
  mutate(country = mean(value))
merge1
```

```
## # A tibble: 1,580 × 4
## # Groups:   year [31]
##    state_name  year value country
##    <chr>      <dbl> <dbl>   <dbl>
##  1 Alabama     1980 38954  56321.
##  2 Alabama     1981 24592  47186.
##  3 Alabama     1982 21454  48468.
##  4 Alabama     1983 43537  77318.
##  5 Alabama     1984 37676  80647.
##  6 Alabama     1985 41725  83034.
##  7 Alabama     1986 46008  82859.
##  8 Alabama     1987 32894  70175.
##  9 Alabama     1988 28649  66155.
## 10 Alabama     1989 27634  60504.
## # … with 1,570 more rows
```
…
#### KS and MO Data

```r
KS <- merge1 %>%
  filter(state_name == 'Kansas')
KS
```

```
## # A tibble: 31 × 4
## # Groups:   year [31]
##    state_name  year value country
##    <chr>      <dbl> <dbl>   <dbl>
##  1 Kansas      1980 26642  56321.
##  2 Kansas      1981 19235  47186.
##  3 Kansas      1982 21618  48468.
##  4 Kansas      1983 35131  77318.
##  5 Kansas      1984 43169  80647.
##  6 Kansas      1985 33875  83034.
##  7 Kansas      1986 32049  82859.
##  8 Kansas      1987 27609  70175.
##  9 Kansas      1988 21844  66155.
## 10 Kansas      1989 19117  60504.
## # … with 21 more rows
```

```r
MO <- merge1 %>%
  filter(state_name == 'Missouri')
MO
```

```
## # A tibble: 31 × 4
## # Groups:   year [31]
##    state_name  year value country
##    <chr>      <dbl> <dbl>   <dbl>
##  1 Missouri    1980 32595  56321.
##  2 Missouri    1981 23359  47186.
##  3 Missouri    1982 28797  48468.
##  4 Missouri    1983 43854  77318.
##  5 Missouri    1984 61985  80647.
##  6 Missouri    1985 68004  83034.
##  7 Missouri    1986 82182  82859.
##  8 Missouri    1987 69215  70175.
##  9 Missouri    1988 54340  66155.
## 10 Missouri    1989 40081  60504.
## # … with 21 more rows
```
…
