…
ALL names mentioned 6+ times & ALL bands mentioned 6+ times

```r
BillboardData2 <- 
  group_by(BillboardData1, band) %>% 
  mutate(count = n()) %>%
  filter(count > 5, !is.na(band))
BillboardData2
```

```
## # A tibble: 162 × 6
## # Groups:   band [10]
##    name              band   title                       peak_date  peak_…¹ count
##    <chr>             <chr>  <chr>                       <date>       <dbl> <int>
##  1 Justin Timberlake *NSYNC SexyBack                    2006-09-08       1    22
##  2 Justin Timberlake *NSYNC My Love                     2006-11-10       1    22
##  3 Justin Timberlake *NSYNC What Goes Around...Comes A… 2007-03-02       1    22
##  4 Justin Timberlake *NSYNC Can't Stop The Feeling!     2016-05-27       1    22
##  5 Justin Timberlake *NSYNC Mirrors                     2013-06-14       2    22
##  6 Justin Timberlake *NSYNC Cry Me A River              2003-01-31       3    22
##  7 Justin Timberlake *NSYNC Suit & Tie                  2013-04-05       3    22
##  8 Justin Timberlake *NSYNC Rock Your Body              2003-05-09       5    22
##  9 Justin Timberlake *NSYNC Summer Love                 2007-06-08       6    22
## 10 Justin Timberlake *NSYNC Not A Bad Thing             2014-05-02       8    22
## # … with 152 more rows, and abbreviated variable name ¹​peak_rank
```

ALL bands mentioned 6+ times

```r
BillboardData3 <- 
  group_by(BillboardData, band) %>% 
  mutate(count = n()) %>%
  filter(count > 5, !is.na(band))
BillboardData3
```

```
## # A tibble: 179 × 6
## # Groups:   band [10]
##    name              band   title                       peak_date  peak_…¹ count
##    <chr>             <chr>  <chr>                       <date>       <dbl> <int>
##  1 JC Chasez         *NSYNC Blowin' Me Up               2003-02-28      35    24
##  2 JC Chasez         *NSYNC Some Girls                  2004-02-13      88    24
##  3 Justin Timberlake *NSYNC SexyBack                    2006-09-08       1    24
##  4 Justin Timberlake *NSYNC My Love                     2006-11-10       1    24
##  5 Justin Timberlake *NSYNC What Goes Around...Comes A… 2007-03-02       1    24
##  6 Justin Timberlake *NSYNC Can't Stop The Feeling!     2016-05-27       1    24
##  7 Justin Timberlake *NSYNC Mirrors                     2013-06-14       2    24
##  8 Justin Timberlake *NSYNC Cry Me A River              2003-01-31       3    24
##  9 Justin Timberlake *NSYNC Suit & Tie                  2013-04-05       3    24
## 10 Justin Timberlake *NSYNC Rock Your Body              2003-05-09       5    24
## # … with 169 more rows, and abbreviated variable name ¹​peak_rank
```
…
